…
Write your narrative below

7 .

\`3. Copy the code provided in the homework documentation and paste it
here.

(4 points)

``` r
seattlepets %>%
count(animal_name, sort = TRUE)
```

    ## # A tibble: 13,930 x 2
    ##    animal_name     n
    ##    <chr>       <int>
    ##  1 <NA>          483
    ##  2 Lucy          439
    ##  3 Charlie       387
    ##  4 Luna          355
    ##  5 Bella         331
    ##  6 Max           270
    ##  7 Daisy         261
    ##  8 Molly         240
    ##  9 Jack          232
    ## 10 Lily          232
    ## # … with 13,920 more rows

Write your narrative here NA 483 Lucy 439 Charlie 387 Luna 355

\`4.

(10 points)

``` r
 seattlepets %>%
     group_by(species) %>%
     count(animal_name, sort = TRUE) %>%
     slice_max(n, n = 5)%>%arrange(species, n) 
```

    ## # A tibble: 53 x 3
    ## # Groups:   species [4]
    ##    species animal_name     n
    ##    <chr>   <chr>       <int>
    ##  1 Cat     Max            83
    ##  2 Cat     Lily           86
    ##  3 Cat     Lucy          102
    ##  4 Cat     Luna          111
    ##  5 Cat     <NA>          406
    ##  6 Dog     Daisy         221
    ##  7 Dog     Luna          244
    ##  8 Dog     Bella         249
    ##  9 Dog     Charlie       306
    ## 10 Dog     Lucy          337
    ## # … with 43 more rows
…
